<?xml version="1.0" encoding="utf-8"?>
<!-- Generator: Adobe Illustrator 18.1.1, SVG Export Plug-In . SVG Version: 6.00 Build 0)  -->
<!DOCTYPE svg PUBLIC "-//W3C//DTD SVG 1.1//EN" "http://www.w3.org/Graphics/SVG/1.1/DTD/svg11.dtd">
<svg version="1.1" id="Layer_1" xmlns="http://www.w3.org/2000/svg" xmlns:xlink="http://www.w3.org/1999/xlink" x="0px" y="0px"
	 viewBox="0 0 1000 640" enable-background="new 0 0 1000 640" xml:space="preserve">
<rect fill="#111111" width="1000" height="640"/>
<path fill="#FFFFFF" d="M538.2,430.7c-12.2,11.6-26.7,20.7-42.9,26.1c-16.2-5.4-30.9-14.5-42.9-26.1H538.2z"/>
<path fill="#FFFFFF" d="M414.7,260.1c-17-14.3-37.3-25.1-59.4-31.1v132.7v5.4c0,77.4,62.5,139.3,140,139.3
	c77.6,0,140-62.1,140-139.4v-6.8v-131c-22.2,6-42.4,16.4-59.4,30.9c-22.8-16.1-50.7-25.5-80.6-25.5
	C465.1,234.6,437.3,244.1,414.7,260.1z M414.8,219.9c24-12.6,51.3-19.5,80.3-19.5c28.8,0,56.1,7,80.3,19.5
	c5.6-3.5,11.6-6.8,17.6-9.9c-25.5-23.8-60-38.3-97.7-38.3s-72.1,14.7-97.9,38.5C403,212.9,409.6,216.6,414.8,219.9z M364.2,197.5
	c32.3-36,79.1-58.6,131.3-58.6s99,22.6,131.3,58.6c13.7-3.7,28-5.8,42.7-6.4v59.2c22.6,13.9,37.5,39.1,37.5,67.5
	c0,28.6-15.1,53.6-37.7,67.7l-0.2,1.5c-9.5,87-84.3,153.6-174.5,153.6s-164.1-67.9-173.6-155c-22.6-14.3-37.5-39.3-37.5-67.9
	c0-28.4,14.9-53.4,37.5-67.5V191C335.9,191.6,350.2,193.8,364.2,197.5z"/>
<g>
	<path fill="#FFFFFF" d="M538.8,367.3c23.4-2.7,62.5-2.3,62.5-2.3c-0.6,7,0.2,27.7-22.4,40.4c-3.7,2.1-13,5.2-21.7,5.6
		c-21.7,1-52.4,1.4-52.4,1.4C510.2,387.8,519.3,369.6,538.8,367.3z"/>
	<path fill="#FFFFFF" d="M451.6,367.3c19.5,2.1,28.4,20.5,33.8,44.9c0,0-30.8-0.2-52.4-1.4c-8.7-0.4-18-3.5-21.7-5.6
		c-22.4-13-21.7-33.5-22.4-40.4C389.1,364.9,428.2,364.7,451.6,367.3z"/>
</g>
<path fill="#FFFFFF" d="M536.3,477.9c-11.8,7.2-25.9,11.2-41,11.2c-15.3,0-29.4-4.1-41-11.2c0,0,0.8-4.6,3.1-8.1
	c2.9-4.3,5.4-5.6,5.4-5.6c10.1,2.9,20.9,4.6,32.5,4.6c11.4,0,22.4-1.5,32.5-4.6c0,0,3.1,1.7,5.8,6.2
	C536.1,474.6,536.3,477.9,536.3,477.9z"/>
<g>
	<path fill="#FFFFFF" d="M675.4,169.9c3.9,0,7.2,2.7,7.2,7s-3.5,7-7.2,7c-3.9,0-7.2-2.7-7.2-7S671.6,169.9,675.4,169.9z
		 M675.4,182.5c2.9,0,5.2-2.3,5.2-5.6c0-3.1-2.3-5.4-5.2-5.4s-5.2,2.3-5.2,5.4C670,180.2,672.5,182.5,675.4,182.5z M672.5,173h2.9
		c1.9,0,3.1,0.6,3.1,2.3c0,1.4-1,1.9-2.1,2.1l2.1,3.5H677l-1.9-3.3h-1v3.3h-1.5L672.5,173L672.5,173z M674.1,176.3h1.4
		c1,0,1.5-0.2,1.5-1.2c0-0.8-1-1-1.5-1h-1.4V176.3z"/>
</g>
</svg>
