<?xml version="1.0" encoding="UTF-8"?>
<svg width="235px" height="1024px" viewBox="0 0 235 1024" version="1.1" xmlns="http://www.w3.org/2000/svg" xmlns:xlink="http://www.w3.org/1999/xlink">
    <!-- Generator: Sketch 52.4 (67378) - http://www.bohemiancoding.com/sketch -->
    <title>Desktop HD</title>
    <desc>Created with Sketch.</desc>
    <defs>
        <linearGradient x1="50%" y1="17.6088253%" x2="50%" y2="84.2997011%" id="linearGradient-1">
            <stop stop-color="#FF00CF" offset="0%"></stop>
            <stop stop-color="#F76B1C" offset="100%"></stop>
        </linearGradient>
    </defs>
    <g id="Desktop-HD" stroke="none" stroke-width="1" fill="none" fill-rule="evenodd">
        <circle id="Oval" fill="url(#linearGradient-1)" fill-rule="nonzero" cx="-548.5" cy="501.5" r="776.5"></circle>
    </g>
</svg>