<?xml version="1.0" encoding="UTF-8"?>
<svg width="500px" height="512px" viewBox="0 0 500 512" version="1.1" xmlns="http://www.w3.org/2000/svg" xmlns:xlink="http://www.w3.org/1999/xlink">
    <!-- Generator: Sketch 50.2 (55047) - http://www.bohemiancoding.com/sketch -->
    <title>home_white</title>
    <desc>Created with Sketch.</desc>
    <defs></defs>
    <g id="Page-1" stroke="none" stroke-width="1" fill="none" fill-rule="evenodd">
        <g id="home_white" fill="#051023" fill-rule="nonzero">
            <path d="M491.027,155.314 L261.027,3.314 C254.339,-1.105 245.66,-1.105 238.972,3.314 L8.972,155.314 C3.37,159.016 0,165.284 0,172 L0,492 C0,503.046 8.954,512 20,512 C25.833,512 464.336,512 480,512 C491.046,512 500,503.046 500,492 L500,172 C500,165.284 496.63,159.016 491.027,155.314 Z M290,472 L210,472 L210,352 L290,352 L290,472 Z M460,472 L330,472 L330,332 C330,320.954 321.046,312 310,312 L190,312 C178.954,312 170,320.954 170,332 L170,472 L40,472 L40,182.755 L250,43.973 L460,182.755 L460,472 Z" id="Shape"></path>
        </g>
    </g>
</svg>